{
	"commentStamp" : "Casco 8/25/2018 14:14",
	"super" : "SeasideDeployer",
	"category" : "SeasideDeployer",
	"classinstvars" : [ ],
	"pools" : [ ],
	"classvars" : [ ],
	"instvars" : [ ],
	"name" : "BootstrapDeployer",
	"type" : "normal"
}