{
	"commentStamp" : "Casco 10/9/2018 17:32",
	"super" : "BootstrapComponentSkeleton",
	"category" : "Bootstrap-Skeleton",
	"classinstvars" : [ ],
	"pools" : [ ],
	"classvars" : [ ],
	"instvars" : [
		"accessCode"
	],
	"name" : "BasicLandingComponent",
	"type" : "normal"
}