{
	"commentStamp" : "Casco 2/25/2019 16:36",
	"super" : "WAComponent",
	"category" : "HighlightJs",
	"classinstvars" : [ ],
	"pools" : [ ],
	"classvars" : [ ],
	"instvars" : [
		"language",
		"subject",
		"selector",
		"modifiedCode",
		"editing"
	],
	"name" : "HighlightJsComponent",
	"type" : "normal"
}